rawdata/583756902459739.bmp 7 173 62 156 184 173 62 156 184 173 62 156 184 173 62 156 184 177 74 132 170 177 74 132 170 177 74 132 170
rawdata/583757272511190.bmp 4 182 62 134 169 182 62 134 169 182 62 134 169 182 62 134 169
rawdata/583757672501440.bmp 4 174 62 130 177 174 62 130 177 174 62 130 177 174 62 130 177
rawdata/583758066445512.bmp 4 171 71 132 169 171 71 132 169 171 71 132 169 171 71 132 169
rawdata/583758466398983.bmp 7 161 70 108 116 161 70 140 198 161 70 140 198 161 70 140 198 161 70 140 198 161 70 140 198 161 70 140 198
rawdata/583758796385208.bmp 5 171 97 146 198 171 97 146 198 171 97 146 198 171 97 146 198 171 97 146 198
rawdata/583760384580152.bmp 5 163 148 180 194 163 148 180 194 163 148 180 194 163 148 180 194 163 148 180 194
rawdata/583760768406778.bmp 4 186 142 138 192 186 142 138 192 186 142 138 192 186 142 138 192
rawdata/583761130458954.bmp 3 199 124 130 216 199 124 130 216 199 124 130 216
rawdata/583761892527467.bmp 3 184 105 127 231 184 105 127 231 184 105 127 231
rawdata/583762372404833.bmp 4 164 92 147 241 164 92 147 241 164 92 147 241 164 92 147 241
rawdata/583762654451432.bmp 4 157 88 166 222 157 88 166 222 157 88 166 222 157 88 166 222
rawdata/583763024524694.bmp 5 162 87 168 234 162 87 168 234 162 87 168 234 162 87 168 234 162 87 168 234
rawdata/583763346397033.bmp 5 129 70 233 248 129 70 233 248 129 70 233 248 129 70 233 248 129 70 233 248
rawdata/583763670463239.bmp 4 139 62 240 264 139 62 240 264 139 62 240 264 139 62 240 264
rawdata/583763960461644.bmp 5 149 71 253 237 149 71 253 237 149 71 253 237 149 71 253 237 149 71 253 237
rawdata/583764368353663.bmp 5 178 101 236 239 178 101 236 239 178 101 236 239 178 101 236 239 178 101 236 239
rawdata/583764878481159.bmp 5 243 127 171 229 243 127 171 229 243 127 171 229 243 127 171 229 243 127 171 229
rawdata/583765336682437.bmp 5 207 68 219 255 207 68 219 255 207 68 219 255 207 68 219 255 207 68 219 255
rawdata/583765822455018.bmp 6 161 72 153 112 161 72 215 216 161 72 215 216 161 72 215 216 161 72 215 216 161 72 215 216
rawdata/583766042347617.bmp 6 138 60 174 217 138 60 174 217 138 60 174 217 138 60 174 217 138 60 174 217 138 60 174 217
rawdata/583766302489760.bmp 4 102 58 187 208 102 58 187 208 102 58 187 208 102 58 187 208
rawdata/583766670557751.bmp 4 80 40 167 218 80 40 167 218 80 40 167 218 80 40 167 218
rawdata/583767182433498.bmp 4 38 23 220 216 38 23 220 216 38 23 220 216 38 23 220 216
rawdata/583767496371139.bmp 5 57 8 227 223 57 8 227 223 57 8 227 223 57 8 227 223 57 8 227 223
rawdata/583767810698372.bmp 4 62 12 233 254 62 12 233 254 62 12 233 254 62 12 233 254
rawdata/583768526388625.bmp 4 71 41 180 215 71 41 180 215 71 41 180 215 71 41 180 215
rawdata/583768886725908.bmp 4 75 56 139 198 75 56 139 198 75 56 139 198 75 56 139 198
rawdata/583769980431392.bmp 5 266 38 153 208 266 38 153 208 266 38 153 208 266 38 153 208 266 38 153 208
rawdata/583770364543263.bmp 4 370 43 138 197 370 43 138 197 370 43 138 197 370 43 138 197
rawdata/583770718446058.bmp 4 343 76 190 194 343 76 190 194 343 76 190 194 343 76 190 194
rawdata/583771040424883.bmp 4 295 131 194 193 295 131 194 193 295 131 194 193 295 131 194 193
rawdata/583771402462091.bmp 5 264 157 128 207 264 157 128 207 264 157 128 207 264 157 128 207 264 157 128 207
rawdata/583771770350467.bmp 5 269 164 166 224 269 164 166 224 269 164 166 224 269 164 166 224 269 164 166 224
rawdata/583772070347858.bmp 4 334 185 161 213 334 185 161 213 334 185 161 213 334 185 161 213
rawdata/583772446396306.bmp 4 390 177 186 239 390 177 186 239 390 177 186 239 390 177 186 239
rawdata/583772786423428.bmp 4 336 176 146 203 336 176 146 203 336 176 146 203 336 176 146 203
rawdata/583773122422473.bmp 5 207 171 8 8 207 171 160 189 207 171 160 189 207 171 160 189 207 171 160 189
rawdata/583773618699528.bmp 3 125 204 171 177 125 204 171 177 125 204 171 177
rawdata/583773956468635.bmp 4 94 218 187 186 94 218 187 186 94 218 187 186 94 218 187 186
rawdata/583774262602439.bmp 4 90 200 138 191 90 200 138 191 90 200 138 191 90 200 138 191
rawdata/583774670355042.bmp 5 126 117 122 191 126 117 122 191 126 117 122 191 126 117 122 191 126 117 122 191
rawdata/583775080574357.bmp 5 183 72 108 192 183 72 108 192 183 72 108 192 183 72 108 192 183 72 108 192
rawdata/583775496424595.bmp 5 255 80 154 200 255 80 154 200 255 80 154 200 255 80 154 200 255 80 154 200
rawdata/583775882413441.bmp 5 291 60 152 192 291 60 152 192 291 60 152 192 291 60 152 192 291 60 152 192
rawdata/583779370549668.bmp 4 198 100 145 196 198 100 145 196 198 100 145 196 198 100 145 196
rawdata/583779732459008.bmp 4 140 105 115 199 140 105 115 199 140 105 115 199 140 105 115 199
rawdata/583780062517507.bmp 3 209 77 136 202 209 77 136 202 209 77 136 202
rawdata/583780354389893.bmp 4 299 74 149 197 299 74 149 197 299 74 149 197 299 74 149 197
rawdata/583780692498985.bmp 4 348 58 153 210 348 58 153 210 348 58 153 210 348 58 153 210
rawdata/583780974355706.bmp 4 379 24 167 215 379 24 167 215 379 24 167 215 379 24 167 215
rawdata/583781344363964.bmp 4 324 22 136 187 324 22 136 187 324 22 136 187 324 22 136 187
rawdata/583781712453337.bmp 4 218 26 124 202 218 26 124 202 218 26 124 202 218 26 124 202
rawdata/583782020582576.bmp 4 155 44 122 192 155 44 122 192 155 44 122 192 155 44 122 192
rawdata/583782388437167.bmp 4 120 105 143 193 120 105 143 193 120 105 143 193 120 105 143 193
rawdata/583782774338771.bmp 4 127 129 193 214 127 129 193 214 127 129 193 214 127 129 193 214
